<?xml version="1.0" encoding="UTF-8" standalone="no"?>
<!-- Created with Inkscape (http://www.inkscape.org/) -->

<svg
   xmlns:dc="http://purl.org/dc/elements/1.1/"
   xmlns:cc="http://creativecommons.org/ns#"
   xmlns:rdf="http://www.w3.org/1999/02/22-rdf-syntax-ns#"
   xmlns:svg="http://www.w3.org/2000/svg"
   xmlns="http://www.w3.org/2000/svg"
   xmlns:xlink="http://www.w3.org/1999/xlink"
   version="1.1"
   width="80"
   height="60.025414"
   id="svg2">
  <defs
     id="defs4">
    <linearGradient
       id="linearGradient3759">
      <stop
         id="stop3761"
         style="stop-color:#ff0000;stop-opacity:1"
         offset="0" />
      <stop
         id="stop3767"
         style="stop-color:#ffff00;stop-opacity:1"
         offset="0.5" />
      <stop
         id="stop3763"
         style="stop-color:#004e00;stop-opacity:1"
         offset="1" />
    </linearGradient>
    <linearGradient
       x1="38.51511"
       y1="-4.1289616"
       x2="58.564407"
       y2="-4.1289616"
       id="linearGradient4765"
       xlink:href="#linearGradient3759"
       gradientUnits="userSpaceOnUse"
       gradientTransform="matrix(0.88014854,0,0,0.88014854,80.146976,847.72159)" />
    <filter
       x="-0.033235162"
       y="-0.16230112"
       width="1.0664703"
       height="1.3246022"
       color-interpolation-filters="sRGB"
       id="filter3791">
      <feGaussianBlur
         id="feGaussianBlur3793"
         stdDeviation="1.0103245" />
    </filter>
    <filter
       x="-0.075571895"
       y="-0.29118577"
       width="1.1511438"
       height="1.5823715"
       color-interpolation-filters="sRGB"
       id="filter4009">
      <feGaussianBlur
         id="feGaussianBlur4011"
         stdDeviation="2.3288181" />
    </filter>
    <filter
       x="-0.086394601"
       y="-0.19639155"
       width="1.1727892"
       height="1.392783"
       color-interpolation-filters="sRGB"
       id="filter4041">
      <feGaussianBlur
         id="feGaussianBlur4043"
         stdDeviation="1.3043672" />
    </filter>
    <filter
       x="-0.092488825"
       y="-0.17080733"
       width="1.1849777"
       height="1.3416147"
       color-interpolation-filters="sRGB"
       id="filter4049">
      <feGaussianBlur
         id="feGaussianBlur4051"
         stdDeviation="0.98071875" />
    </filter>
    <filter
       x="-0.23194288"
       y="-0.24863704"
       width="1.4638858"
       height="1.497274"
       color-interpolation-filters="sRGB"
       id="filter4089">
      <feGaussianBlur
         id="feGaussianBlur4091"
         stdDeviation="1.7959405" />
    </filter>
    <linearGradient
       x1="38.51511"
       y1="-4.1289616"
       x2="58.564407"
       y2="-4.1289616"
       id="linearGradient4119"
       xlink:href="#linearGradient3759"
       gradientUnits="userSpaceOnUse"
       gradientTransform="matrix(0.88014854,0,0,0.88014854,80.146976,817.72159)" />
  </defs>
  <metadata
     id="metadata7">
    <rdf:RDF>
      <cc:Work
         rdf:about="">
        <dc:format>image/svg+xml</dc:format>
        <dc:type
           rdf:resource="http://purl.org/dc/dcmitype/StillImage" />
        <dc:title></dc:title>
      </cc:Work>
    </rdf:RDF>
  </metadata>
  <g
     transform="translate(-75.165538,-798.78027)"
     id="layer1">
    <path
       d="m 128.74757,835.63986 -7.99081,11.54818 -5.07058,-6.68998 -2.70784,2.04416 6.50414,8.57485 1.40702,1.85833 1.32738,-1.91142 9.34473,-13.51269 -2.81404,-1.91143 z"
       transform="matrix(1.0360528,0,0,1.0360528,-3.6390931,-30.941552)"
       id="path3795"
       style="font-size:medium;font-style:normal;font-variant:normal;font-weight:normal;font-stretch:normal;text-indent:0;text-align:start;text-decoration:none;line-height:normal;letter-spacing:normal;word-spacing:normal;text-transform:none;direction:ltr;block-progression:tb;writing-mode:lr-tb;text-anchor:start;baseline-shift:baseline;opacity:0.5;color:#000000;fill:none;stroke:#ffffff;stroke-width:3;stroke-linecap:butt;stroke-linejoin:round;stroke-miterlimit:4;stroke-opacity:1;stroke-dasharray:none;marker:none;visibility:visible;display:inline;overflow:visible;filter:url(#filter4089);enable-background:accumulate;font-family:Sans;-inkscape-font-specification:Sans" />
    <g
       transform="matrix(1.0070185,0,0,1.0070185,-0.52754772,-6.007351)"
       id="text3763"
       style="font-size:40px;font-style:normal;font-weight:normal;line-height:125%;letter-spacing:0px;word-spacing:0px;opacity:0.5;fill:none;stroke:#ffffff;stroke-width:2;stroke-miterlimit:4;stroke-opacity:1;filter:url(#filter4041);font-family:Sans">
      <path
         d="m 86.136017,852.77438 c 0.34666,0 0.666659,-0.02 0.96,-0.06 0.306659,-0.04 0.573325,-0.08 0.8,-0.12 0.226658,-0.0533 0.446658,-0.13333 0.66,-0.24 0.213324,-0.10666 0.386657,-0.19333 0.52,-0.26 0.133324,-0.0667 0.266657,-0.17333 0.4,-0.32 0.146656,-0.16 0.253323,-0.27333 0.32,-0.34 0.07999,-0.0667 0.166656,-0.18666 0.26,-0.36 0.09332,-0.18666 0.153323,-0.30666 0.18,-0.36 0.02666,-0.0533 0.07999,-0.16666 0.16,-0.34 0.07999,-0.18666 0.119989,-0.28666 0.12,-0.3 l 0.5,0 -0.96,3.48 -10.76,0 0,-0.38 c 0.733333,-0.0533 1.206666,-0.18666 1.42,-0.4 0.213332,-0.22666 0.319998,-0.69333 0.32,-1.4 l 0,-8.88 c -2e-6,-0.70665 -0.106668,-1.16665 -0.32,-1.38 -0.213334,-0.22665 -0.686667,-0.36665 -1.42,-0.42 l 0,-0.38 5.64,0 0,0.38 c -0.786671,0.0534 -1.293338,0.19335 -1.52,0.42 -0.22667,0.21335 -0.340004,0.67335 -0.34,1.38 l 0,9.46 c -4e-6,0.34667 0.1,0.57334 0.3,0.68 0.213329,0.0933 0.686662,0.14 1.42,0.14 l 1.34,0"
         id="path4378"
         style="font-size:20px;font-variant:normal;font-stretch:normal;stroke:#ffffff;font-family:FreeSerif;-inkscape-font-specification:FreeSerif" />
      <path
         d="m 92.46258,845.69438 c -0.293334,10e-6 -0.573334,0.02 -0.84,0.06 l 0,-0.3 c 0.933332,-0.26666 1.966664,-0.63332 3.1,-1.1 l 0.08,0.06 0,7.1 c -4e-6,0.72 0.08,1.18 0.24,1.38 0.173329,0.18667 0.586662,0.30667 1.24,0.36 l 0,0.3 -4.74,0 0,-0.3 c 0.693332,-0.04 1.126665,-0.16 1.3,-0.36 0.186665,-0.2 0.279998,-0.66 0.28,-1.38 l 0,-4.64 c -2e-6,-0.43999 -0.05334,-0.74666 -0.16,-0.92 -0.09333,-0.17332 -0.260002,-0.25999 -0.5,-0.26 m 1.32,-5.8 c 0.29333,2e-5 0.539997,0.10002 0.74,0.3 0.199996,0.20002 0.299996,0.44002 0.3,0.72 -4e-6,0.29335 -0.100004,0.54001 -0.3,0.74 -0.200003,0.18668 -0.44667,0.28001 -0.74,0.28 -0.280002,10e-6 -0.520002,-0.1 -0.72,-0.3 -0.186668,-0.19999 -0.280002,-0.43999 -0.28,-0.72 -2e-6,-0.27998 0.1,-0.51998 0.3,-0.72 0.199998,-0.19998 0.433331,-0.29998 0.7,-0.3"
         id="path4380"
         style="font-size:20px;font-variant:normal;font-stretch:normal;stroke:#ffffff;font-family:FreeSerif;-inkscape-font-specification:FreeSerif" />
      <path
         d="m 105.32633,844.55438 0,0.3 c -0.30668,0.0267 -0.53334,0.12668 -0.68,0.3 -0.14668,0.17334 -0.35334,0.59334 -0.62,1.26 l -2.56,6.42 c -0.26667,0.66667 -0.45334,1 -0.56,1 -0.14667,0 -0.32,-0.31333 -0.52,-0.94 l -2.4,-5.74 c -0.426668,-1.02666 -0.740001,-1.65999 -0.94,-1.9 -0.200001,-0.23999 -0.493334,-0.37332 -0.88,-0.4 l 0,-0.3 3.92,0 0,0.3 c -0.34667,0.0267 -0.58667,0.08 -0.72,0.16 -0.133337,0.08 -0.200003,0.21334 -0.2,0.4 -3e-6,0.21334 0.06,0.46001 0.18,0.74 l 2.04,5.12 1.98,-5.18 c 0.08,-0.19999 0.11999,-0.39999 0.12,-0.6 -10e-6,-0.37332 -0.31334,-0.58666 -0.94,-0.64 l 0,-0.3 2.78,0"
         id="path4382"
         style="font-size:20px;font-variant:normal;font-stretch:normal;stroke:#ffffff;font-family:FreeSerif;-inkscape-font-specification:FreeSerif" />
      <path
         d="m 106.9907,848.01438 c 0.0267,0.84001 0.14,1.56667 0.34,2.18 0.2,0.60001 0.46,1.05334 0.78,1.36 0.32,0.29334 0.64,0.50667 0.96,0.64 0.33333,0.12 0.68,0.18 1.04,0.18 0.64,0 1.19333,-0.16 1.66,-0.48 0.48,-0.32 0.96,-0.86 1.44,-1.62 l 0.32,0.14 c -0.41334,1.08 -0.98667,1.90667 -1.72,2.48 -0.73333,0.57334 -1.57333,0.86 -2.52,0.86 -1.14666,0 -2.06,-0.4 -2.74,-1.2 -0.66666,-0.81333 -1,-1.90666 -1,-3.28 0,-1.47999 0.38667,-2.66666 1.16,-3.56 0.78667,-0.90666 1.79333,-1.35999 3.02,-1.36 1.01333,10e-6 1.8,0.30668 2.36,0.92 0.56,0.60001 0.91333,1.51334 1.06,2.74 l -6.16,0 m 0.04,-0.64 4.08,0 c -0.13333,-0.86666 -0.34,-1.46666 -0.62,-1.8 -0.28,-0.33332 -0.72667,-0.49999 -1.34,-0.5 -1.2,10e-6 -1.90666,0.76668 -2.12,2.3"
         id="path4384"
         style="font-size:20px;font-variant:normal;font-stretch:normal;stroke:#ffffff;font-family:FreeSerif;-inkscape-font-specification:FreeSerif" />
    </g>
    <g
       transform="matrix(1.0070185,0,0,1.0070185,-0.52754772,-6.007351)"
       id="text3767"
       style="font-size:40px;font-style:normal;font-weight:normal;line-height:125%;letter-spacing:0px;word-spacing:0px;opacity:0.5;fill:none;stroke:#ffffff;stroke-width:2;stroke-miterlimit:4;stroke-opacity:1;filter:url(#filter4049);font-family:Sans">
      <path
         d="m 132.2255,844.35438 c 1.27999,10e-6 2.33332,0.42668 3.16,1.28 0.82665,0.85334 1.23999,1.93334 1.24,3.24 -10e-6,1.38667 -0.42668,2.54667 -1.28,3.48 -0.85334,0.93334 -1.90668,1.4 -3.16,1.4 -1.25334,0 -2.30001,-0.44666 -3.14,-1.34 -0.82667,-0.90666 -1.24,-2.03333 -1.24,-3.38 0,-1.37333 0.40666,-2.49332 1.22,-3.36 0.82666,-0.87999 1.89333,-1.31999 3.2,-1.32 m -2.62,3.7 c -1e-5,1.42667 0.25999,2.64001 0.78,3.64 0.51999,1 1.19999,1.5 2.04,1.5 0.74666,0 1.33332,-0.32 1.76,-0.96 0.42666,-0.64 0.63999,-1.52666 0.64,-2.66 -1e-5,-1.37333 -0.26668,-2.49332 -0.8,-3.36 -0.53334,-0.86666 -1.22001,-1.29999 -2.06,-1.3 -0.70667,10e-6 -1.28001,0.28668 -1.72,0.86 -0.42667,0.57334 -0.64001,1.33334 -0.64,2.28"
         id="path4387"
         style="font-size:20px;font-variant:normal;font-stretch:normal;stroke:#ffffff;font-family:FreeSerif;-inkscape-font-specification:FreeSerif" />
      <path
         d="m 142.29018,844.55438 0,0.64 -2.02,0 0,5.72 c 0,0.62667 0.08,1.08667 0.24,1.38 0.16,0.28 0.42667,0.42 0.8,0.42 0.41333,0 0.81333,-0.23333 1.2,-0.7 l 0.26,0.22 c -0.64,1.01334 -1.44,1.52 -2.4,1.52 -1.18667,0 -1.78,-0.84666 -1.78,-2.54 l 0,-6.02 -1.06,0 c -0.0533,-0.04 -0.08,-0.0867 -0.08,-0.14 0,-0.0667 0.02,-0.11999 0.06,-0.16 0.04,-0.04 0.11334,-0.0933 0.22,-0.16 0.12,-0.08 0.26,-0.17999 0.42,-0.3 0.16,-0.13332 0.38,-0.36665 0.66,-0.7 0.28,-0.33332 0.58667,-0.73332 0.92,-1.2 0.21333,-0.30665 0.34667,-0.49332 0.4,-0.56 0.0933,10e-6 0.14,0.0867 0.14,0.26 l 0,2.32 2.02,0"
         id="path4389"
         style="font-size:20px;font-variant:normal;font-stretch:normal;stroke:#ffffff;font-family:FreeSerif;-inkscape-font-specification:FreeSerif" />
      <path
         d="m 144.71425,848.01438 c 0.0267,0.84001 0.13999,1.56667 0.34,2.18 0.19999,0.60001 0.45999,1.05334 0.78,1.36 0.31999,0.29334 0.63999,0.50667 0.96,0.64 0.33333,0.12 0.67999,0.18 1.04,0.18 0.63999,0 1.19332,-0.16 1.66,-0.48 0.47999,-0.32 0.95999,-0.86 1.44,-1.62 l 0.32,0.14 c -0.41335,1.08 -0.98668,1.90667 -1.72,2.48 -0.73334,0.57334 -1.57334,0.86 -2.52,0.86 -1.14667,0 -2.06001,-0.4 -2.74,-1.2 -0.66667,-0.81333 -1,-1.90666 -1,-3.28 0,-1.47999 0.38666,-2.66666 1.16,-3.56 0.78666,-0.90666 1.79333,-1.35999 3.02,-1.36 1.01332,10e-6 1.79999,0.30668 2.36,0.92 0.55999,0.60001 0.91332,1.51334 1.06,2.74 l -6.16,0 m 0.04,-0.64 4.08,0 c -0.13334,-0.86666 -0.34001,-1.46666 -0.62,-1.8 -0.28001,-0.33332 -0.72668,-0.49999 -1.34,-0.5 -1.20001,10e-6 -1.90667,0.76668 -2.12,2.3"
         id="path4391"
         style="font-size:20px;font-variant:normal;font-stretch:normal;stroke:#ffffff;font-family:FreeSerif;-inkscape-font-specification:FreeSerif" />
    </g>
    <g
       id="text2991"
       style="font-size:40.28073883px;font-style:normal;font-weight:normal;line-height:125%;letter-spacing:0px;word-spacing:0px;fill:#000000;fill-opacity:1;stroke:none;font-family:Sans">
      <path
         d="m 86.213015,852.75218 c 0.349093,1e-5 0.671338,-0.0201 0.966738,-0.0604 0.308811,-0.0403 0.577349,-0.0806 0.805615,-0.12084 0.228248,-0.0537 0.449792,-0.13427 0.664632,-0.24168 0.214821,-0.10742 0.38937,-0.19469 0.52365,-0.26183 0.134258,-0.0671 0.268527,-0.17455 0.402807,-0.32224 0.147685,-0.16113 0.255101,-0.27525 0.322246,-0.34239 0.08055,-0.0671 0.167825,-0.18797 0.261825,-0.36253 0.09398,-0.18797 0.154398,-0.30881 0.181263,-0.36252 0.02684,-0.0537 0.08055,-0.16784 0.161123,-0.34239 0.08055,-0.18797 0.120831,-0.28868 0.120842,-0.30211 l 0.503509,0 -0.966737,3.50443 -10.835519,0 0,-0.38267 c 0.738479,-0.0537 1.215134,-0.18797 1.429966,-0.40281 0.214829,-0.22825 0.322244,-0.69819 0.322246,-1.40982 l 0,-8.94233 c -2e-6,-0.71161 -0.107417,-1.17484 -0.322246,-1.38968 -0.214832,-0.22825 -0.691487,-0.36923 -1.429966,-0.42295 l 0,-0.38267 5.679584,0 0,0.38267 c -0.792193,0.0537 -1.302415,0.1947 -1.530668,0.42295 -0.228262,0.21484 -0.34239,0.67807 -0.342386,1.38968 l 0,9.5264 c -4e-6,0.3491 0.100697,0.57736 0.302105,0.68477 0.214826,0.094 0.691481,0.14099 1.429967,0.14098 l 1.349404,0"
         id="path4394"
         style="font-size:20.14036942px;font-variant:normal;font-stretch:normal;font-family:FreeSerif;-inkscape-font-specification:FreeSerif" />
      <path
         d="m 92.58398,845.62249 c -0.295393,10e-6 -0.577357,0.0202 -0.845895,0.0604 l 0,-0.3021 c 0.939883,-0.26853 1.980467,-0.63777 3.121757,-1.10772 l 0.08056,0.0604 0,7.14983 c -4e-6,0.72506 0.08056,1.18828 0.241684,1.38969 0.174546,0.18797 0.59078,0.30882 1.248703,0.36252 l 0,0.30211 -4.773268,0 0,-0.30211 c 0.698199,-0.0403 1.134573,-0.16112 1.309124,-0.36252 0.187975,-0.20141 0.281964,-0.66463 0.281966,-1.38969 l 0,-4.67256 c -2e-6,-0.44309 -0.05371,-0.7519 -0.161123,-0.92646 -0.09399,-0.17454 -0.261827,-0.26182 -0.50351,-0.26183 m 1.329265,-5.8407 c 0.295389,10e-6 0.543787,0.10071 0.745194,0.3021 0.2014,0.20142 0.302101,0.4431 0.302105,0.72506 -4e-6,0.2954 -0.100705,0.5438 -0.302105,0.74519 -0.201407,0.18799 -0.449805,0.28198 -0.745194,0.28196 -0.281968,2e-5 -0.523652,-0.10069 -0.725053,-0.3021 -0.187979,-0.20139 -0.281967,-0.44308 -0.281966,-0.72505 -10e-7,-0.28196 0.100701,-0.52364 0.302106,-0.72506 0.201402,-0.20139 0.436372,-0.30209 0.704913,-0.3021"
         id="path4396"
         style="font-size:20.14036942px;font-variant:normal;font-stretch:normal;font-family:FreeSerif;-inkscape-font-specification:FreeSerif" />
      <path
         d="m 105.53802,844.47449 0,0.30211 c -0.30883,0.0269 -0.53709,0.12756 -0.68478,0.3021 -0.1477,0.17456 -0.35582,0.59751 -0.62435,1.26885 l -2.57797,6.46506 c -0.26854,0.67134 -0.45652,1.00701 -0.56393,1.00701 -0.1477,0 -0.32225,-0.31553 -0.52365,-0.94659 l -2.41684,-5.78029 c -0.429663,-1.03386 -0.745195,-1.67164 -0.946598,-1.91333 -0.201404,-0.24168 -0.496796,-0.37595 -0.886176,-0.40281 l 0,-0.30211 3.947514,0 0,0.30211 c -0.349105,0.0269 -0.590789,0.0806 -0.725055,0.16112 -0.134272,0.0806 -0.201407,0.21484 -0.201404,0.40281 -3e-6,0.21484 0.06042,0.46323 0.181264,0.74519 l 2.054315,5.15594 1.9939,-5.21636 c 0.0806,-0.2014 0.12083,-0.4028 0.12084,-0.60421 -1e-5,-0.37595 -0.31554,-0.59078 -0.9466,-0.64449 l 0,-0.30211 2.79952,0"
         id="path4398"
         style="font-size:20.14036942px;font-variant:normal;font-stretch:normal;font-family:FreeSerif;-inkscape-font-specification:FreeSerif" />
      <path
         d="m 107.21407,847.95878 c 0.0268,0.8459 0.14098,1.57766 0.34239,2.1953 0.2014,0.60421 0.46322,1.06073 0.78547,1.36954 0.32225,0.2954 0.64449,0.51023 0.96674,0.64449 0.33567,0.12085 0.68477,0.18127 1.0473,0.18127 0.64449,0 1.2017,-0.16112 1.67165,-0.48337 0.48336,-0.32225 0.96673,-0.86604 1.45011,-1.63137 l 0.32224,0.14098 c -0.41624,1.08758 -0.9936,1.92005 -1.73207,2.49741 -0.73849,0.57735 -1.58438,0.86603 -2.53769,0.86603 -1.15471,0 -2.07446,-0.4028 -2.75923,-1.20842 -0.67134,-0.81904 -1.00702,-1.92005 -1.00701,-3.30302 -1e-5,-1.49038 0.38937,-2.68538 1.16814,-3.58499 0.79218,-0.91302 1.80591,-1.36953 3.04119,-1.36954 1.02044,10e-6 1.81263,0.30883 2.37657,0.92646 0.56392,0.60421 0.91973,1.52396 1.06744,2.75923 l -6.20324,0 m 0.0403,-0.6445 4.10864,0 c -0.13428,-0.87274 -0.34239,-1.47695 -0.62435,-1.81263 -0.28197,-0.33566 -0.73177,-0.5035 -1.34941,-0.50351 -1.20842,10e-6 -1.92005,0.77206 -2.13488,2.31614"
         id="path4400"
         style="font-size:20.14036942px;font-variant:normal;font-stretch:normal;font-family:FreeSerif;-inkscape-font-specification:FreeSerif" />
    </g>
    <g
       id="text2995"
       style="font-size:40.28073883px;font-style:normal;font-weight:normal;line-height:125%;letter-spacing:0px;word-spacing:0px;fill:#000000;fill-opacity:1;stroke:none;font-family:Sans">
      <path
         d="m 132.62597,844.27309 c 1.28898,10e-6 2.3497,0.42967 3.18218,1.28898 0.83246,0.85933 1.24869,1.94691 1.2487,3.26274 -1e-5,1.3964 -0.42967,2.56454 -1.28898,3.50443 -0.85933,0.93988 -1.92006,1.40982 -3.18218,1.40982 -1.26213,0 -2.31614,-0.4498 -3.16204,-1.3494 -0.83247,-0.91303 -1.2487,-2.0476 -1.2487,-3.40372 0,-1.38297 0.40952,-2.51083 1.22856,-3.38359 0.83247,-0.88616 1.90662,-1.32925 3.22246,-1.32926 m -2.63839,3.72597 c 0,1.43668 0.26182,2.65853 0.78548,3.66554 0.52364,1.00702 1.20841,1.51053 2.05431,1.51053 0.75191,0 1.34269,-0.32224 1.77236,-0.96674 0.42965,-0.64449 0.64448,-1.53737 0.64449,-2.67866 -1e-5,-1.38297 -0.26855,-2.51083 -0.80562,-3.38359 -0.53708,-0.87274 -1.22856,-1.30911 -2.07445,-1.30912 -0.71163,10e-6 -1.28899,0.28869 -1.73208,0.86603 -0.42966,0.57737 -0.64449,1.3427 -0.64449,2.29601"
         id="path4403"
         style="font-size:20.14036942px;font-variant:normal;font-stretch:normal;font-family:FreeSerif;-inkscape-font-specification:FreeSerif" />
      <path
         d="m 142.7613,844.47449 0,0.64449 -2.03418,0 0,5.76015 c 0,0.63107 0.0806,1.09429 0.24168,1.38969 0.16112,0.28196 0.42966,0.42294 0.80562,0.42294 0.41623,0 0.81904,-0.23497 1.20842,-0.70491 l 0.26183,0.22154 c -0.6445,1.02045 -1.45011,1.53067 -2.41685,1.53067 -1.195,0 -1.79249,-0.85261 -1.79249,-2.55782 l 0,-6.06226 -1.06744,0 c -0.0537,-0.0403 -0.0806,-0.0873 -0.0806,-0.14098 0,-0.0671 0.0201,-0.12083 0.0604,-0.16112 0.0403,-0.0403 0.11413,-0.094 0.22154,-0.16112 0.12084,-0.0806 0.26183,-0.18126 0.42295,-0.30211 0.16112,-0.13426 0.38267,-0.36923 0.66463,-0.70491 0.28197,-0.33567 0.59079,-0.73847 0.92646,-1.20842 0.21483,-0.30881 0.3491,-0.49679 0.40281,-0.56394 0.094,2e-5 0.14098,0.0873 0.14098,0.26183 l 0,2.33628 2.03418,0"
         id="path4405"
         style="font-size:20.14036942px;font-variant:normal;font-stretch:normal;font-family:FreeSerif;-inkscape-font-specification:FreeSerif" />
      <path
         d="m 145.20237,847.95878 c 0.0269,0.8459 0.14098,1.57766 0.34239,2.1953 0.2014,0.60421 0.46323,1.06073 0.78547,1.36954 0.32225,0.2954 0.64449,0.51023 0.96674,0.64449 0.33567,0.12085 0.68477,0.18127 1.0473,0.18127 0.64449,0 1.2017,-0.16112 1.67165,-0.48337 0.48336,-0.32225 0.96673,-0.86604 1.45011,-1.63137 l 0.32224,0.14098 c -0.41624,1.08758 -0.9936,1.92005 -1.73207,2.49741 -0.73848,0.57735 -1.58438,0.86603 -2.53768,0.86603 -1.15472,0 -2.07446,-0.4028 -2.75923,-1.20842 -0.67135,-0.81904 -1.00702,-1.92005 -1.00702,-3.30302 0,-1.49038 0.38938,-2.68538 1.16814,-3.58499 0.79218,-0.91302 1.80591,-1.36953 3.04119,-1.36954 1.02044,10e-6 1.81263,0.30883 2.37657,0.92646 0.56392,0.60421 0.91973,1.52396 1.06744,2.75923 l -6.20324,0 m 0.0403,-0.6445 4.10864,0 c -0.13428,-0.87274 -0.34239,-1.47695 -0.62435,-1.81263 -0.28197,-0.33566 -0.73177,-0.5035 -1.34941,-0.50351 -1.20842,10e-6 -1.92005,0.77206 -2.13488,2.31614"
         id="path4407"
         style="font-size:20.14036942px;font-variant:normal;font-stretch:normal;font-family:FreeSerif;-inkscape-font-specification:FreeSerif" />
    </g>
    <path
       d="m 114.81109,840.92497 6.73036,8.86972 9.66404,-13.98166"
       id="path3775"
       style="fill:none;stroke:url(#linearGradient4765);stroke-width:3.52059436;stroke-linecap:butt;stroke-linejoin:miter;stroke-miterlimit:4;stroke-opacity:1;stroke-dasharray:none;stroke-dashoffset:0;marker-start:none" />
    <path
       d="m 129.75017,834.82542 -8.27889,11.96451 -5.25338,-6.93116 -2.80547,2.11786 6.73863,8.884 1.45774,1.92532 1.37524,-1.98033 9.68163,-13.99986 -2.9155,-1.98034 z"
       id="path4461"
       style="font-size:medium;font-style:normal;font-variant:normal;font-weight:normal;font-stretch:normal;text-indent:0;text-align:start;text-decoration:none;line-height:normal;letter-spacing:normal;word-spacing:normal;text-transform:none;direction:ltr;block-progression:tb;writing-mode:lr-tb;text-anchor:start;baseline-shift:baseline;color:#000000;fill:none;stroke:#000000;stroke-width:0.77703953;stroke-linecap:butt;stroke-linejoin:miter;stroke-miterlimit:4;stroke-opacity:1;stroke-dasharray:none;marker:none;visibility:visible;display:inline;overflow:visible;enable-background:accumulate;font-family:Sans;-inkscape-font-specification:Sans" />
    <path
       d="m 128.74757,835.63986 -7.99081,11.54818 -5.07058,-6.68998 -2.70784,2.04416 6.50414,8.57485 1.40702,1.85833 1.32738,-1.91142 9.34473,-13.51269 -2.81404,-1.91143 z"
       transform="matrix(1.0360528,0,0,1.0360528,-3.6390931,-60.941552)"
       id="path4097"
       style="font-size:medium;font-style:normal;font-variant:normal;font-weight:normal;font-stretch:normal;text-indent:0;text-align:start;text-decoration:none;line-height:normal;letter-spacing:normal;word-spacing:normal;text-transform:none;direction:ltr;block-progression:tb;writing-mode:lr-tb;text-anchor:start;baseline-shift:baseline;opacity:0.4;color:#000000;fill:none;stroke:#ffffff;stroke-width:3;stroke-linecap:butt;stroke-linejoin:round;stroke-miterlimit:4;stroke-opacity:1;stroke-dasharray:none;marker:none;visibility:visible;display:inline;overflow:visible;filter:url(#filter4089);enable-background:accumulate;font-family:Sans;-inkscape-font-specification:Sans" />
    <g
       transform="matrix(1.0070185,0,0,1.0070185,-0.52754772,-36.007351)"
       id="text4099"
       style="font-size:40px;font-style:normal;font-weight:normal;line-height:125%;letter-spacing:0px;word-spacing:0px;opacity:0.4;fill:none;stroke:#ffffff;stroke-width:2;stroke-miterlimit:4;stroke-opacity:1;filter:url(#filter4041);font-family:Sans">
      <path
         d="m 86.136017,852.77438 c 0.34666,0 0.666659,-0.02 0.96,-0.06 0.306659,-0.04 0.573325,-0.08 0.8,-0.12 0.226658,-0.0533 0.446658,-0.13333 0.66,-0.24 0.213324,-0.10666 0.386657,-0.19333 0.52,-0.26 0.133324,-0.0667 0.266657,-0.17333 0.4,-0.32 0.146656,-0.16 0.253323,-0.27333 0.32,-0.34 0.07999,-0.0667 0.166656,-0.18666 0.26,-0.36 0.09332,-0.18666 0.153323,-0.30666 0.18,-0.36 0.02666,-0.0533 0.07999,-0.16666 0.16,-0.34 0.07999,-0.18666 0.119989,-0.28666 0.12,-0.3 l 0.5,0 -0.96,3.48 -10.76,0 0,-0.38 c 0.733333,-0.0533 1.206666,-0.18666 1.42,-0.4 0.213332,-0.22666 0.319998,-0.69333 0.32,-1.4 l 0,-8.88 c -2e-6,-0.70665 -0.106668,-1.16665 -0.32,-1.38 -0.213334,-0.22665 -0.686667,-0.36665 -1.42,-0.42 l 0,-0.38 5.64,0 0,0.38 c -0.786671,0.0534 -1.293338,0.19335 -1.52,0.42 -0.22667,0.21335 -0.340004,0.67335 -0.34,1.38 l 0,9.46 c -4e-6,0.34667 0.1,0.57334 0.3,0.68 0.213329,0.0933 0.686662,0.14 1.42,0.14 l 1.34,0"
         id="path4410"
         style="font-size:20px;font-variant:normal;font-stretch:normal;stroke:#ffffff;font-family:FreeSerif;-inkscape-font-specification:FreeSerif" />
      <path
         d="m 92.46258,845.69438 c -0.293334,10e-6 -0.573334,0.02 -0.84,0.06 l 0,-0.3 c 0.933332,-0.26666 1.966664,-0.63332 3.1,-1.1 l 0.08,0.06 0,7.1 c -4e-6,0.72 0.08,1.18 0.24,1.38 0.173329,0.18667 0.586662,0.30667 1.24,0.36 l 0,0.3 -4.74,0 0,-0.3 c 0.693332,-0.04 1.126665,-0.16 1.3,-0.36 0.186665,-0.2 0.279998,-0.66 0.28,-1.38 l 0,-4.64 c -2e-6,-0.43999 -0.05334,-0.74666 -0.16,-0.92 -0.09333,-0.17332 -0.260002,-0.25999 -0.5,-0.26 m 1.32,-5.8 c 0.29333,2e-5 0.539997,0.10002 0.74,0.3 0.199996,0.20002 0.299996,0.44002 0.3,0.72 -4e-6,0.29335 -0.100004,0.54001 -0.3,0.74 -0.200003,0.18668 -0.44667,0.28001 -0.74,0.28 -0.280002,10e-6 -0.520002,-0.1 -0.72,-0.3 -0.186668,-0.19999 -0.280002,-0.43999 -0.28,-0.72 -2e-6,-0.27998 0.1,-0.51998 0.3,-0.72 0.199998,-0.19998 0.433331,-0.29998 0.7,-0.3"
         id="path4412"
         style="font-size:20px;font-variant:normal;font-stretch:normal;stroke:#ffffff;font-family:FreeSerif;-inkscape-font-specification:FreeSerif" />
      <path
         d="m 105.32633,844.55438 0,0.3 c -0.30668,0.0267 -0.53334,0.12668 -0.68,0.3 -0.14668,0.17334 -0.35334,0.59334 -0.62,1.26 l -2.56,6.42 c -0.26667,0.66667 -0.45334,1 -0.56,1 -0.14667,0 -0.32,-0.31333 -0.52,-0.94 l -2.4,-5.74 c -0.426668,-1.02666 -0.740001,-1.65999 -0.94,-1.9 -0.200001,-0.23999 -0.493334,-0.37332 -0.88,-0.4 l 0,-0.3 3.92,0 0,0.3 c -0.34667,0.0267 -0.58667,0.08 -0.72,0.16 -0.133337,0.08 -0.200003,0.21334 -0.2,0.4 -3e-6,0.21334 0.06,0.46001 0.18,0.74 l 2.04,5.12 1.98,-5.18 c 0.08,-0.19999 0.11999,-0.39999 0.12,-0.6 -10e-6,-0.37332 -0.31334,-0.58666 -0.94,-0.64 l 0,-0.3 2.78,0"
         id="path4414"
         style="font-size:20px;font-variant:normal;font-stretch:normal;stroke:#ffffff;font-family:FreeSerif;-inkscape-font-specification:FreeSerif" />
      <path
         d="m 106.9907,848.01438 c 0.0267,0.84001 0.14,1.56667 0.34,2.18 0.2,0.60001 0.46,1.05334 0.78,1.36 0.32,0.29334 0.64,0.50667 0.96,0.64 0.33333,0.12 0.68,0.18 1.04,0.18 0.64,0 1.19333,-0.16 1.66,-0.48 0.48,-0.32 0.96,-0.86 1.44,-1.62 l 0.32,0.14 c -0.41334,1.08 -0.98667,1.90667 -1.72,2.48 -0.73333,0.57334 -1.57333,0.86 -2.52,0.86 -1.14666,0 -2.06,-0.4 -2.74,-1.2 -0.66666,-0.81333 -1,-1.90666 -1,-3.28 0,-1.47999 0.38667,-2.66666 1.16,-3.56 0.78667,-0.90666 1.79333,-1.35999 3.02,-1.36 1.01333,10e-6 1.8,0.30668 2.36,0.92 0.56,0.60001 0.91333,1.51334 1.06,2.74 l -6.16,0 m 0.04,-0.64 4.08,0 c -0.13333,-0.86666 -0.34,-1.46666 -0.62,-1.8 -0.28,-0.33332 -0.72667,-0.49999 -1.34,-0.5 -1.2,10e-6 -1.90666,0.76668 -2.12,2.3"
         id="path4416"
         style="font-size:20px;font-variant:normal;font-stretch:normal;stroke:#ffffff;font-family:FreeSerif;-inkscape-font-specification:FreeSerif" />
    </g>
    <g
       transform="matrix(1.0070185,0,0,1.0070185,-0.52754772,-36.007351)"
       id="text4103"
       style="font-size:40px;font-style:normal;font-weight:normal;line-height:125%;letter-spacing:0px;word-spacing:0px;opacity:0.4;fill:none;stroke:#ffffff;stroke-width:2;stroke-miterlimit:4;stroke-opacity:1;filter:url(#filter4049);font-family:Sans">
      <path
         d="m 132.2255,844.35438 c 1.27999,10e-6 2.33332,0.42668 3.16,1.28 0.82665,0.85334 1.23999,1.93334 1.24,3.24 -10e-6,1.38667 -0.42668,2.54667 -1.28,3.48 -0.85334,0.93334 -1.90668,1.4 -3.16,1.4 -1.25334,0 -2.30001,-0.44666 -3.14,-1.34 -0.82667,-0.90666 -1.24,-2.03333 -1.24,-3.38 0,-1.37333 0.40666,-2.49332 1.22,-3.36 0.82666,-0.87999 1.89333,-1.31999 3.2,-1.32 m -2.62,3.7 c -1e-5,1.42667 0.25999,2.64001 0.78,3.64 0.51999,1 1.19999,1.5 2.04,1.5 0.74666,0 1.33332,-0.32 1.76,-0.96 0.42666,-0.64 0.63999,-1.52666 0.64,-2.66 -1e-5,-1.37333 -0.26668,-2.49332 -0.8,-3.36 -0.53334,-0.86666 -1.22001,-1.29999 -2.06,-1.3 -0.70667,10e-6 -1.28001,0.28668 -1.72,0.86 -0.42667,0.57334 -0.64001,1.33334 -0.64,2.28"
         id="path4419"
         style="font-size:20px;font-variant:normal;font-stretch:normal;stroke:#ffffff;font-family:FreeSerif;-inkscape-font-specification:FreeSerif" />
      <path
         d="m 142.29018,844.55438 0,0.64 -2.02,0 0,5.72 c 0,0.62667 0.08,1.08667 0.24,1.38 0.16,0.28 0.42667,0.42 0.8,0.42 0.41333,0 0.81333,-0.23333 1.2,-0.7 l 0.26,0.22 c -0.64,1.01334 -1.44,1.52 -2.4,1.52 -1.18667,0 -1.78,-0.84666 -1.78,-2.54 l 0,-6.02 -1.06,0 c -0.0533,-0.04 -0.08,-0.0867 -0.08,-0.14 0,-0.0667 0.02,-0.11999 0.06,-0.16 0.04,-0.04 0.11334,-0.0933 0.22,-0.16 0.12,-0.08 0.26,-0.17999 0.42,-0.3 0.16,-0.13332 0.38,-0.36665 0.66,-0.7 0.28,-0.33332 0.58667,-0.73332 0.92,-1.2 0.21333,-0.30665 0.34667,-0.49332 0.4,-0.56 0.0933,10e-6 0.14,0.0867 0.14,0.26 l 0,2.32 2.02,0"
         id="path4421"
         style="font-size:20px;font-variant:normal;font-stretch:normal;stroke:#ffffff;font-family:FreeSerif;-inkscape-font-specification:FreeSerif" />
      <path
         d="m 144.71425,848.01438 c 0.0267,0.84001 0.13999,1.56667 0.34,2.18 0.19999,0.60001 0.45999,1.05334 0.78,1.36 0.31999,0.29334 0.63999,0.50667 0.96,0.64 0.33333,0.12 0.67999,0.18 1.04,0.18 0.63999,0 1.19332,-0.16 1.66,-0.48 0.47999,-0.32 0.95999,-0.86 1.44,-1.62 l 0.32,0.14 c -0.41335,1.08 -0.98668,1.90667 -1.72,2.48 -0.73334,0.57334 -1.57334,0.86 -2.52,0.86 -1.14667,0 -2.06001,-0.4 -2.74,-1.2 -0.66667,-0.81333 -1,-1.90666 -1,-3.28 0,-1.47999 0.38666,-2.66666 1.16,-3.56 0.78666,-0.90666 1.79333,-1.35999 3.02,-1.36 1.01332,10e-6 1.79999,0.30668 2.36,0.92 0.55999,0.60001 0.91332,1.51334 1.06,2.74 l -6.16,0 m 0.04,-0.64 4.08,0 c -0.13334,-0.86666 -0.34001,-1.46666 -0.62,-1.8 -0.28001,-0.33332 -0.72668,-0.49999 -1.34,-0.5 -1.20001,10e-6 -1.90667,0.76668 -2.12,2.3"
         id="path4423"
         style="font-size:20px;font-variant:normal;font-stretch:normal;stroke:#ffffff;font-family:FreeSerif;-inkscape-font-specification:FreeSerif" />
    </g>
    <g
       id="text4107"
       style="font-size:40.28073883px;font-style:normal;font-weight:normal;line-height:125%;letter-spacing:0px;word-spacing:0px;fill:#000000;fill-opacity:1;stroke:none;font-family:Sans">
      <path
         d="m 86.213015,822.75218 c 0.349093,1e-5 0.671338,-0.0201 0.966738,-0.0604 0.308811,-0.0403 0.577349,-0.0806 0.805615,-0.12084 0.228248,-0.0537 0.449792,-0.13427 0.664632,-0.24168 0.214821,-0.10742 0.38937,-0.19469 0.52365,-0.26183 0.134258,-0.0671 0.268527,-0.17455 0.402807,-0.32224 0.147685,-0.16113 0.255101,-0.27525 0.322246,-0.34239 0.08055,-0.0671 0.167825,-0.18797 0.261825,-0.36253 0.09398,-0.18797 0.154398,-0.30881 0.181263,-0.36252 0.02684,-0.0537 0.08055,-0.16784 0.161123,-0.34239 0.08055,-0.18797 0.120831,-0.28868 0.120842,-0.30211 l 0.503509,0 -0.966737,3.50443 -10.835519,0 0,-0.38267 c 0.738479,-0.0537 1.215134,-0.18797 1.429966,-0.40281 0.214829,-0.22825 0.322244,-0.69819 0.322246,-1.40982 l 0,-8.94233 c -2e-6,-0.71161 -0.107417,-1.17484 -0.322246,-1.38968 -0.214832,-0.22825 -0.691487,-0.36923 -1.429966,-0.42295 l 0,-0.38267 5.679584,0 0,0.38267 c -0.792193,0.0537 -1.302415,0.1947 -1.530668,0.42295 -0.228262,0.21484 -0.34239,0.67807 -0.342386,1.38968 l 0,9.5264 c -4e-6,0.3491 0.100697,0.57736 0.302105,0.68477 0.214826,0.094 0.691481,0.14099 1.429967,0.14098 l 1.349404,0"
         id="path4426"
         style="font-size:20.14036942px;font-variant:normal;font-stretch:normal;fill:#000000;font-family:FreeSerif;-inkscape-font-specification:FreeSerif" />
      <path
         d="m 92.58398,815.62249 c -0.295393,10e-6 -0.577357,0.0202 -0.845895,0.0604 l 0,-0.3021 c 0.939883,-0.26853 1.980467,-0.63777 3.121757,-1.10772 l 0.08056,0.0604 0,7.14983 c -4e-6,0.72506 0.08056,1.18828 0.241684,1.38969 0.174546,0.18797 0.59078,0.30882 1.248703,0.36252 l 0,0.30211 -4.773268,0 0,-0.30211 c 0.698199,-0.0403 1.134573,-0.16112 1.309124,-0.36252 0.187975,-0.20141 0.281964,-0.66463 0.281966,-1.38969 l 0,-4.67256 c -2e-6,-0.44309 -0.05371,-0.7519 -0.161123,-0.92646 -0.09399,-0.17454 -0.261827,-0.26182 -0.50351,-0.26183 m 1.329265,-5.8407 c 0.295389,10e-6 0.543787,0.10071 0.745194,0.3021 0.2014,0.20142 0.302101,0.4431 0.302105,0.72506 -4e-6,0.2954 -0.100705,0.5438 -0.302105,0.74519 -0.201407,0.18799 -0.449805,0.28198 -0.745194,0.28196 -0.281968,2e-5 -0.523652,-0.10069 -0.725053,-0.3021 -0.187979,-0.20139 -0.281967,-0.44308 -0.281966,-0.72505 -10e-7,-0.28196 0.100701,-0.52364 0.302106,-0.72506 0.201402,-0.20139 0.436372,-0.30209 0.704913,-0.3021"
         id="path4428"
         style="font-size:20.14036942px;font-variant:normal;font-stretch:normal;fill:#000000;font-family:FreeSerif;-inkscape-font-specification:FreeSerif" />
      <path
         d="m 105.53802,814.47449 0,0.30211 c -0.30883,0.0269 -0.53709,0.12756 -0.68478,0.3021 -0.1477,0.17456 -0.35582,0.59751 -0.62435,1.26885 l -2.57797,6.46506 c -0.26854,0.67134 -0.45652,1.00701 -0.56393,1.00701 -0.1477,0 -0.32225,-0.31553 -0.52365,-0.94659 l -2.41684,-5.78029 c -0.429663,-1.03386 -0.745195,-1.67164 -0.946598,-1.91333 -0.201404,-0.24168 -0.496796,-0.37595 -0.886176,-0.40281 l 0,-0.30211 3.947514,0 0,0.30211 c -0.349105,0.0269 -0.590789,0.0806 -0.725055,0.16112 -0.134272,0.0806 -0.201407,0.21484 -0.201404,0.40281 -3e-6,0.21484 0.06042,0.46323 0.181264,0.74519 l 2.054315,5.15594 1.9939,-5.21636 c 0.0806,-0.2014 0.12083,-0.4028 0.12084,-0.60421 -1e-5,-0.37595 -0.31554,-0.59078 -0.9466,-0.64449 l 0,-0.30211 2.79952,0"
         id="path4430"
         style="font-size:20.14036942px;font-variant:normal;font-stretch:normal;fill:#000000;font-family:FreeSerif;-inkscape-font-specification:FreeSerif" />
      <path
         d="m 107.21407,817.95878 c 0.0268,0.8459 0.14098,1.57766 0.34239,2.1953 0.2014,0.60421 0.46322,1.06073 0.78547,1.36954 0.32225,0.2954 0.64449,0.51023 0.96674,0.64449 0.33567,0.12085 0.68477,0.18127 1.0473,0.18127 0.64449,0 1.2017,-0.16112 1.67165,-0.48337 0.48336,-0.32225 0.96673,-0.86604 1.45011,-1.63137 l 0.32224,0.14098 c -0.41624,1.08758 -0.9936,1.92005 -1.73207,2.49741 -0.73849,0.57735 -1.58438,0.86603 -2.53769,0.86603 -1.15471,0 -2.07446,-0.4028 -2.75923,-1.20842 -0.67134,-0.81904 -1.00702,-1.92005 -1.00701,-3.30302 -1e-5,-1.49038 0.38937,-2.68538 1.16814,-3.58499 0.79218,-0.91302 1.80591,-1.36953 3.04119,-1.36954 1.02044,10e-6 1.81263,0.30883 2.37657,0.92646 0.56392,0.60421 0.91973,1.52396 1.06744,2.75923 l -6.20324,0 m 0.0403,-0.6445 4.10864,0 c -0.13428,-0.87274 -0.34239,-1.47695 -0.62435,-1.81263 -0.28197,-0.33566 -0.73177,-0.5035 -1.34941,-0.50351 -1.20842,10e-6 -1.92005,0.77206 -2.13488,2.31614"
         id="path4432"
         style="font-size:20.14036942px;font-variant:normal;font-stretch:normal;fill:#000000;font-family:FreeSerif;-inkscape-font-specification:FreeSerif" />
    </g>
    <g
       id="text4111"
       style="font-size:40.28073883px;font-style:normal;font-weight:normal;line-height:125%;letter-spacing:0px;word-spacing:0px;fill:#000000;fill-opacity:1;stroke:none;font-family:Sans">
      <path
         d="m 132.62597,814.27309 c 1.28898,10e-6 2.3497,0.42967 3.18218,1.28898 0.83246,0.85933 1.24869,1.94691 1.2487,3.26274 -1e-5,1.3964 -0.42967,2.56454 -1.28898,3.50443 -0.85933,0.93988 -1.92006,1.40982 -3.18218,1.40982 -1.26213,0 -2.31614,-0.4498 -3.16204,-1.3494 -0.83247,-0.91303 -1.2487,-2.0476 -1.2487,-3.40372 0,-1.38297 0.40952,-2.51083 1.22856,-3.38359 0.83247,-0.88616 1.90662,-1.32925 3.22246,-1.32926 m -2.63839,3.72597 c 0,1.43668 0.26182,2.65853 0.78548,3.66554 0.52364,1.00702 1.20841,1.51053 2.05431,1.51053 0.75191,0 1.34269,-0.32224 1.77236,-0.96674 0.42965,-0.64449 0.64448,-1.53737 0.64449,-2.67866 -1e-5,-1.38297 -0.26855,-2.51083 -0.80562,-3.38359 -0.53708,-0.87274 -1.22856,-1.30911 -2.07445,-1.30912 -0.71163,10e-6 -1.28899,0.28869 -1.73208,0.86603 -0.42966,0.57737 -0.64449,1.3427 -0.64449,2.29601"
         id="path4435"
         style="font-size:20.14036942px;font-variant:normal;font-stretch:normal;fill:#000000;font-family:FreeSerif;-inkscape-font-specification:FreeSerif" />
      <path
         d="m 142.7613,814.47449 0,0.64449 -2.03418,0 0,5.76015 c 0,0.63107 0.0806,1.09429 0.24168,1.38969 0.16112,0.28196 0.42966,0.42294 0.80562,0.42294 0.41623,0 0.81904,-0.23497 1.20842,-0.70491 l 0.26183,0.22154 c -0.6445,1.02045 -1.45011,1.53067 -2.41685,1.53067 -1.195,0 -1.79249,-0.85261 -1.79249,-2.55782 l 0,-6.06226 -1.06744,0 c -0.0537,-0.0403 -0.0806,-0.0873 -0.0806,-0.14098 0,-0.0671 0.0201,-0.12083 0.0604,-0.16112 0.0403,-0.0403 0.11413,-0.094 0.22154,-0.16112 0.12084,-0.0806 0.26183,-0.18126 0.42295,-0.30211 0.16112,-0.13426 0.38267,-0.36923 0.66463,-0.70491 0.28197,-0.33567 0.59079,-0.73847 0.92646,-1.20842 0.21483,-0.30881 0.3491,-0.49679 0.40281,-0.56394 0.094,2e-5 0.14098,0.0873 0.14098,0.26183 l 0,2.33628 2.03418,0"
         id="path4437"
         style="font-size:20.14036942px;font-variant:normal;font-stretch:normal;fill:#000000;font-family:FreeSerif;-inkscape-font-specification:FreeSerif" />
      <path
         d="m 145.20237,817.95878 c 0.0269,0.8459 0.14098,1.57766 0.34239,2.1953 0.2014,0.60421 0.46323,1.06073 0.78547,1.36954 0.32225,0.2954 0.64449,0.51023 0.96674,0.64449 0.33567,0.12085 0.68477,0.18127 1.0473,0.18127 0.64449,0 1.2017,-0.16112 1.67165,-0.48337 0.48336,-0.32225 0.96673,-0.86604 1.45011,-1.63137 l 0.32224,0.14098 c -0.41624,1.08758 -0.9936,1.92005 -1.73207,2.49741 -0.73848,0.57735 -1.58438,0.86603 -2.53768,0.86603 -1.15472,0 -2.07446,-0.4028 -2.75923,-1.20842 -0.67135,-0.81904 -1.00702,-1.92005 -1.00702,-3.30302 0,-1.49038 0.38938,-2.68538 1.16814,-3.58499 0.79218,-0.91302 1.80591,-1.36953 3.04119,-1.36954 1.02044,10e-6 1.81263,0.30883 2.37657,0.92646 0.56392,0.60421 0.91973,1.52396 1.06744,2.75923 l -6.20324,0 m 0.0403,-0.6445 4.10864,0 c -0.13428,-0.87274 -0.34239,-1.47695 -0.62435,-1.81263 -0.28197,-0.33566 -0.73177,-0.5035 -1.34941,-0.50351 -1.20842,10e-6 -1.92005,0.77206 -2.13488,2.31614"
         id="path4439"
         style="font-size:20.14036942px;font-variant:normal;font-stretch:normal;fill:#000000;font-family:FreeSerif;-inkscape-font-specification:FreeSerif" />
    </g>
    <path
       d="m 114.81109,810.92497 6.73036,8.86972 9.66404,-13.98166"
       id="path4115"
       style="opacity:0.35;fill:none;stroke:url(#linearGradient4119);stroke-width:3.52099991;stroke-linecap:butt;stroke-linejoin:miter;stroke-miterlimit:4;stroke-opacity:1;stroke-dasharray:none;stroke-dashoffset:0;marker-start:none" />
    <path
       d="m 129.75017,804.82542 -8.27889,11.96451 -5.25338,-6.93116 -2.80547,2.11786 6.73863,8.884 1.45774,1.92532 1.37524,-1.98033 9.68163,-13.99986 -2.9155,-1.98034 z"
       id="path4117"
       style="font-size:medium;font-style:normal;font-variant:normal;font-weight:normal;font-stretch:normal;text-indent:0;text-align:start;text-decoration:none;line-height:normal;letter-spacing:normal;word-spacing:normal;text-transform:none;direction:ltr;block-progression:tb;writing-mode:lr-tb;text-anchor:start;baseline-shift:baseline;color:#000000;fill:none;stroke:#000000;stroke-width:0.77703953;stroke-linecap:butt;stroke-linejoin:miter;stroke-miterlimit:4;stroke-opacity:1;stroke-dasharray:none;marker:none;visibility:visible;display:inline;overflow:visible;enable-background:accumulate;font-family:Sans;-inkscape-font-specification:Sans" />
  </g>
</svg>
