[
    {
        "id": [
            "939"
        ],
        "GameTitle": [
            "The Witcher 2: Assassins of Kings"
        ],
        "PlatformId": [
            "1"
        ],
        "Platform": [
            "PC"
        ],
        "ReleaseDate": [
            "05/17/2011"
        ],
        "Overview": [
            "The second installment in the RPG saga about the Witcher, Geralt of Rivia, features a thoroughly engrossing, mature storyline defining new standards for thought-provoking, non-linear game narration. In addition to an epic story, the game features an original, brutal combat system that uniquely combines tactical elements with dynamic action. A new, modern game engine, responsible for beautiful visuals and sophisticated game mechanics puts players in the most lively and believable world ever created in an RPG game. A captivating story, dynamic combat system, beautiful graphics, and everything else that made the original Witcher such a great game are now executed in a much more advanced and sophisticated way."
        ],
        "ESRB": [
            "M - Mature"
        ],
        "Genres": [
            {
                "genre": [
                    "Action",
                    "Role-Playing"
                ]
            }
        ],
        "Players": [
            "1"
        ],
        "Publisher": [
            "Atari"
        ],
        "Developer": [
            "CD Projekt Red Studio"
        ],
        "Rating": [
            "9"
        ],
        "Images": [
            {
                "fanart": [
                    {
                        "original": [
                            {
                                "_": "http://thegamesdb.net/banners/fanart/original/939-1.jpg",
                                "$": {
                                    "width": "1920",
                                    "height": "1080"
                                }
                            }
                        ],
                        "thumb": [
                            "http://thegamesdb.net/banners/fanart/thumb/939-1.jpg"
                        ]
                    },
                    {
                        "original": [
                            {
                                "_": "http://thegamesdb.net/banners/fanart/original/939-10.jpg",
                                "$": {
                                    "width": "1920",
                                    "height": "1080"
                                }
                            }
                        ],
                        "thumb": [
                            "http://thegamesdb.net/banners/fanart/thumb/939-10.jpg"
                        ]
                    },
                    {
                        "original": [
                            {
                                "_": "http://thegamesdb.net/banners/fanart/original/939-11.jpg",
                                "$": {
                                    "width": "1920",
                                    "height": "1080"
                                }
                            }
                        ],
                        "thumb": [
                            "http://thegamesdb.net/banners/fanart/thumb/939-11.jpg"
                        ]
                    },
                    {
                        "original": [
                            {
                                "_": "http://thegamesdb.net/banners/fanart/original/939-2.jpg",
                                "$": {
                                    "width": "1920",
                                    "height": "1080"
                                }
                            }
                        ],
                        "thumb": [
                            "http://thegamesdb.net/banners/fanart/thumb/939-2.jpg"
                        ]
                    },
                    {
                        "original": [
                            {
                                "_": "http://thegamesdb.net/banners/fanart/original/939-3.jpg",
                                "$": {
                                    "width": "1920",
                                    "height": "1080"
                                }
                            }
                        ],
                        "thumb": [
                            "http://thegamesdb.net/banners/fanart/thumb/939-3.jpg"
                        ]
                    },
                    {
                        "original": [
                            {
                                "_": "http://thegamesdb.net/banners/fanart/original/939-4.jpg",
                                "$": {
                                    "width": "1920",
                                    "height": "1080"
                                }
                            }
                        ],
                        "thumb": [
                            "http://thegamesdb.net/banners/fanart/thumb/939-4.jpg"
                        ]
                    },
                    {
                        "original": [
                            {
                                "_": "http://thegamesdb.net/banners/fanart/original/939-5.jpg",
                                "$": {
                                    "width": "1920",
                                    "height": "1080"
                                }
                            }
                        ],
                        "thumb": [
                            "http://thegamesdb.net/banners/fanart/thumb/939-5.jpg"
                        ]
                    },
                    {
                        "original": [
                            {
                                "_": "http://thegamesdb.net/banners/fanart/original/939-6.jpg",
                                "$": {
                                    "width": "1920",
                                    "height": "1080"
                                }
                            }
                        ],
                        "thumb": [
                            "http://thegamesdb.net/banners/fanart/thumb/939-6.jpg"
                        ]
                    },
                    {
                        "original": [
                            {
                                "_": "http://thegamesdb.net/banners/fanart/original/939-7.jpg",
                                "$": {
                                    "width": "1920",
                                    "height": "1080"
                                }
                            }
                        ],
                        "thumb": [
                            "http://thegamesdb.net/banners/fanart/thumb/939-7.jpg"
                        ]
                    },
                    {
                        "original": [
                            {
                                "_": "http://thegamesdb.net/banners/fanart/original/939-8.jpg",
                                "$": {
                                    "width": "1920",
                                    "height": "1080"
                                }
                            }
                        ],
                        "thumb": [
                            "http://thegamesdb.net/banners/fanart/thumb/939-8.jpg"
                        ]
                    },
                    {
                        "original": [
                            {
                                "_": "http://thegamesdb.net/banners/fanart/original/939-9.jpg",
                                "$": {
                                    "width": "1920",
                                    "height": "1080"
                                }
                            }
                        ],
                        "thumb": [
                            "http://thegamesdb.net/banners/fanart/thumb/939-9.jpg"
                        ]
                    }
                ],
                "boxart": [
                    {
                        "_": "http://thegamesdb.net/banners/boxart/original/back/939-1.jpg",
                        "$": {
                            "side": "back",
                            "width": "1527",
                            "height": "2165",
                            "thumb": "http://thegamesdb.net/banners/boxart/thumb/original/back/939-1.jpg"
                        }
                    },
                    {
                        "_": "http://thegamesdb.net/banners/boxart/original/front/939-1.jpg",
                        "$": {
                            "side": "front",
                            "width": "640",
                            "height": "896",
                            "thumb": "http://thegamesdb.net/banners/boxart/thumb/original/front/939-1.jpg"
                        }
                    }
                ],
                "banner": [
                    {
                        "_": "http://thegamesdb.net/banners/",
                        "$": {
                            "width": "760",
                            "height": "140"
                        }
                    }
                ]
            }
        ]
    },
    {
        "id": [
            "8350"
        ],
        "GameTitle": [
            "Tenchu: Stealth Assassins"
        ],
        "PlatformId": [
            "10"
        ],
        "Platform": [
            "Sony Playstation"
        ],
        "ReleaseDate": [
            "08/31/1998"
        ],
        "Overview": [
            "It is 16th century Japan and you are one of two ninja employed by Lord Gohda, an uniquely compassionate samurai lord. As either Rikimaru or Ayame, you must proceed through your assigned quests, at first dispatching the amoral and unsavory folk in your lord's domain. As the game progresses, you will come face to face with greater threats from tengu goblins and oni demons.\r\n\r\nA full 3D game in the Tomb Raider spirit, Tenchu focuses on stealth and attacking unseen over straight action. Not being spotted leads to higher scores and better equipment. To aid in this, you can not only creep about and hug walls, but also use your grappling hook.\r\n\r\nScenery is diverse, from Japanese castles to mountain retreats, each with their own types of opponents and soundtrack. Game engine cutscenes push the story forward, which various slightly for each of the two ninja."
        ],
        "ESRB": [
            "M - Mature"
        ],
        "Genres": [
            {
                "genre": [
                    "Action",
                    "Adventure"
                ]
            }
        ],
        "Players": [
            "1"
        ],
        "Co-op": [
            "No"
        ],
        "Publisher": [
            "Activision"
        ],
        "Developer": [
            "Acquire Corp."
        ],
        "Rating": [
            "8"
        ],
        "Images": [
            {
                "fanart": [
                    {
                        "original": [
                            {
                                "_": "http://thegamesdb.net/banners/fanart/original/8350-1.jpg",
                                "$": {
                                    "width": "1280",
                                    "height": "720"
                                }
                            }
                        ],
                        "thumb": [
                            "http://thegamesdb.net/banners/fanart/thumb/8350-1.jpg"
                        ]
                    },
                    {
                        "original": [
                            {
                                "_": "http://thegamesdb.net/banners/fanart/original/8350-2.jpg",
                                "$": {
                                    "width": "1280",
                                    "height": "720"
                                }
                            }
                        ],
                        "thumb": [
                            "http://thegamesdb.net/banners/fanart/thumb/8350-2.jpg"
                        ]
                    },
                    {
                        "original": [
                            {
                                "_": "http://thegamesdb.net/banners/fanart/original/8350-3.jpg",
                                "$": {
                                    "width": "1280",
                                    "height": "720"
                                }
                            }
                        ],
                        "thumb": [
                            "http://thegamesdb.net/banners/fanart/thumb/8350-3.jpg"
                        ]
                    },
                    {
                        "original": [
                            {
                                "_": "http://thegamesdb.net/banners/fanart/original/8350-4.jpg",
                                "$": {
                                    "width": "1280",
                                    "height": "720"
                                }
                            }
                        ],
                        "thumb": [
                            "http://thegamesdb.net/banners/fanart/thumb/8350-4.jpg"
                        ]
                    }
                ],
                "boxart": [
                    {
                        "_": "http://thegamesdb.net/banners/boxart/original/back/8350-1.jpg",
                        "$": {
                            "side": "back",
                            "width": "1584",
                            "height": "1384",
                            "thumb": "http://thegamesdb.net/banners/boxart/thumb/original/back/8350-1.jpg"
                        }
                    },
                    {
                        "_": "http://thegamesdb.net/banners/boxart/original/front/8350-2.jpg",
                        "$": {
                            "side": "front",
                            "width": "1423",
                            "height": "1375",
                            "thumb": "http://thegamesdb.net/banners/boxart/thumb/original/front/8350-2.jpg"
                        }
                    }
                ]
            }
        ]
    },
    {
        "id": [
            "17629"
        ],
        "GameTitle": [
            "Tenchu: Shadow Assassins"
        ],
        "PlatformId": [
            "9"
        ],
        "Platform": [
            "Nintendo Wii"
        ],
        "ReleaseDate": [
            "02/05/2009"
        ],
        "Overview": [
            "Tenchu 4 will use the Wii Remote to fight, dash, jump and kill like a true ninja. Players will continue the saga of Rikimaru and Ayame, elite ninjas who must use their lethal skills to keep the peace in feudal Japan. Playing as both stealthy Rikimaru and aggressive and acrobatic Ayame, players will fight their way through more than 10 missions and 50 side quests and experience the thrilling adventure of being the ultimate ninja."
        ],
        "ESRB": [
            "M - Mature"
        ],
        "Genres": [
            {
                "genre": [
                    "Action",
                    "Adventure",
                    "Stealth"
                ]
            }
        ],
        "Players": [
            "1"
        ],
        "Co-op": [
            "No"
        ],
        "Publisher": [
            "Ubisoft"
        ],
        "Developer": [
            "Acquire"
        ],
        "Rating": [
            "6"
        ],
        "Images": [
            {
                "boxart": [
                    {
                        "_": "http://thegamesdb.net/banners/boxart/original/front/17629-1.jpg",
                        "$": {
                            "side": "front",
                            "width": "520",
                            "height": "731",
                            "thumb": "http://thegamesdb.net/banners/boxart/thumb/original/front/17629-1.jpg"
                        }
                    }
                ]
            }
        ]
    },
    {
        "id": [
            "10250"
        ],
        "GameTitle": [
            "Tenchu 2: Birth of the Stealth Assassins"
        ],
        "PlatformId": [
            "10"
        ],
        "Platform": [
            "Sony Playstation"
        ],
        "ReleaseDate": [
            "08/07/2000"
        ],
        "Overview": [
            "Tenchu 2 is a prequel to Tenchu, telling a tale of events prior to those of the previous game.\r\n\r\nOnce again, you can play as Ayame or Rikimaru, two faithful and honorable ninja whose lord is a gentle man in an age of warfare. With your training nearly complete, you find yourself caught up in aiding your lord against a civil war in his own domain. All is not what it seems, however, and you'll soon realize that your greatest threat has been forged much like you.\r\n\r\nMuch like its predecessor, Tenchu 2 is a 3D third person stealth action game. You are not only rewarded for stealth, but also for efficiency of movement this time. This extra feature increases the difficulty of achieving the better items, as you not only have to be quiet, but be direct and near perfect in your steps."
        ],
        "ESRB": [
            "M - Mature"
        ],
        "Genres": [
            {
                "genre": [
                    "Action",
                    "Stealth"
                ]
            }
        ],
        "Players": [
            "1"
        ],
        "Co-op": [
            "No"
        ],
        "Publisher": [
            "Activision"
        ],
        "Developer": [
            "Acquire Corp"
        ],
        "Rating": [
            "8"
        ],
        "Images": [
            {
                "fanart": [
                    {
                        "original": [
                            {
                                "_": "http://thegamesdb.net/banners/fanart/original/10250-1.jpg",
                                "$": {
                                    "width": "1280",
                                    "height": "720"
                                }
                            }
                        ],
                        "thumb": [
                            "http://thegamesdb.net/banners/fanart/thumb/10250-1.jpg"
                        ]
                    },
                    {
                        "original": [
                            {
                                "_": "http://thegamesdb.net/banners/fanart/original/10250-2.jpg",
                                "$": {
                                    "width": "1280",
                                    "height": "720"
                                }
                            }
                        ],
                        "thumb": [
                            "http://thegamesdb.net/banners/fanart/thumb/10250-2.jpg"
                        ]
                    },
                    {
                        "original": [
                            {
                                "_": "http://thegamesdb.net/banners/fanart/original/10250-3.jpg",
                                "$": {
                                    "width": "1280",
                                    "height": "720"
                                }
                            }
                        ],
                        "thumb": [
                            "http://thegamesdb.net/banners/fanart/thumb/10250-3.jpg"
                        ]
                    }
                ],
                "boxart": [
                    {
                        "_": "http://thegamesdb.net/banners/boxart/original/back/10250-1.jpg",
                        "$": {
                            "side": "back",
                            "width": "1587",
                            "height": "1382",
                            "thumb": "http://thegamesdb.net/banners/boxart/thumb/original/back/10250-1.jpg"
                        }
                    },
                    {
                        "_": "http://thegamesdb.net/banners/boxart/original/front/10250-1.jpg",
                        "$": {
                            "side": "front",
                            "width": "2500",
                            "height": "2479",
                            "thumb": "http://thegamesdb.net/banners/boxart/thumb/original/front/10250-1.jpg"
                        }
                    }
                ]
            }
        ]
    },
    {
        "id": [
            "10781"
        ],
        "GameTitle": [
            "The Witcher 2: Assassins of Kings - Enhanced Edition"
        ],
        "PlatformId": [
            "15"
        ],
        "Platform": [
            "Microsoft Xbox 360"
        ],
        "ReleaseDate": [
            "04/17/2012"
        ],
        "ESRB": [
            "M - Mature"
        ],
        "Genres": [
            {
                "genre": [
                    "Role-Playing"
                ]
            }
        ],
        "Players": [
            "1"
        ],
        "Co-op": [
            "No"
        ],
        "Publisher": [
            "Atari"
        ],
        "Developer": [
            "CD Projekt RED"
        ],
        "Images": [
            {
                "fanart": [
                    {
                        "original": [
                            {
                                "_": "http://thegamesdb.net/banners/fanart/original/10781-1.jpg",
                                "$": {
                                    "width": "1920",
                                    "height": "1080"
                                }
                            }
                        ],
                        "thumb": [
                            "http://thegamesdb.net/banners/fanart/thumb/10781-1.jpg"
                        ]
                    }
                ],
                "boxart": [
                    {
                        "_": "http://thegamesdb.net/banners/boxart/original/front/10781-1.jpg",
                        "$": {
                            "side": "front",
                            "width": "1280",
                            "height": "1802",
                            "thumb": "http://thegamesdb.net/banners/boxart/thumb/original/front/10781-1.jpg"
                        }
                    }
                ]
            }
        ]
    }
]